{
"type": "FeatureCollection",
"name": "pol_a",
"crs": { "type": "name", "properties": { "name": "urn:ogc:def:crs:EPSG::32718" } },
"features": [
{ "type": "Feature", "properties": { }, "geometry": { "type": "Polygon", "coordinates": [ [ [ 477905.5111, 9255254.209499999880791 ], [ 478431.6493, 9255135.117599999532104 ], [ 478964.7967, 9255065.121300000697374 ], [ 479483.925500000012107, 9254896.933800000697374 ], [ 480029.548200000019278, 9254881.015000000596046 ], [ 480536.201699999975972, 9254658.749900000169873 ], [ 481084.7511, 9254639.982699999585748 ], [ 480892.731099999975413, 9253708.549799999222159 ], [ 480369.749399999971502, 9253843.10869999974966 ], [ 479840.5872, 9253947.387399999424815 ], [ 479306.6472, 9254046.45160000026226 ], [ 478788.178300000028685, 9254184.915699999779463 ], [ 478264.2269, 9254314.722899999469519 ], [ 477730.2743, 9254424.858300000429153 ], [ 477905.5111, 9255254.209499999880791 ] ] ] } }
]
}
