POLYGON;LAND NAME;VERTICE;ESTE;NORTE;AREA
A;1-Diego;1;481084.7511;9254639.9827;481,751.82
A;1-Diego;2;480892.7311;9253708.5498;481,751.82
A;1-Diego;3;480369.7494;9253843.1087;481,751.82
A;1-Diego;4;480536.2017;9254658.7499;481,751.82
A;2-DEYSI;1;480536.2017;9254658.7499;481,994.55
A;2-DEYSI;2;480369.7494;9253843.1087;481,994.55
A;2-DEYSI;3;479840.5872;9253947.3874;481,994.55
A;2-DEYSI;4;480029.5482;9254881.0150;481,994.55
A;3-GLORIA;1;480029.5482;9254881.0150;492,042.42
A;3-GLORIA;2;479840.5872;9253947.3874;492,042.42
A;3-GLORIA;3;479306.6472;9254046.4516;492,042.42
A;3-GLORIA;4;479483.9255;9254896.9338;492,042.42
A;4-OSWALDO;1;479483.9255;9254896.9338;476,070.16
A;4-OSWALDO;2;479306.6427;9254046.4516;476,070.16
A;4-OSWALDO;3;478788.1783;9254184.9157;476,070.16
A;4-OSWALDO;4;478964.7967;9255065.1213;476,070.16
A;5-MILAGROS;1;478964.7967;9255065.1213;466,610.81
A;5-MILAGROS;2;478788.1783;9254184.9157;466,610.81
A;5-MILAGROS;3;478264.2269;9254314.7229;466,610.81
A;5-MILAGROS;4;478431.6493;9255135.1176;466,610.81
A;6-JOVITA;1;478431.6493;9255135.1176;456,856.80
A;6-JOVITA;2;478264.2269;9254314.7229;456,856.80
A;6-JOVITA;3;477730.2743;9254424.8583;456,856.80
A;6-JOVITA;4;477905.5111;9255254.2095;456,856.80
B;8-TALMI;1;480354.5654;9253821.1975;462,551.15
B;8-TALMI;2;480879.5466;9253686.3376;462,551.15
B;8-TALMI;3;480709.9375;9252855.2276;462,551.15
B;8-TALMI;4;480183.7994;9252974.3195;462,551.15
B;9-SATALAYA;1;479827.2704;9253924.5214;477,960.91
B;9-SATALAYA;2;480354.5654;9253821.1975;477,960.91
B;9-SATALAYA;3;480183.7994;9252974.3195;477,960.91
B;9-SATALAYA;4;479645.2393;9253030.4658;477,960.91
B;10-HIPOLITO;1;479827.2704;9253924.5214;467,450.50
B;10-HIPOLITO;2;479645.2393;9253030.4658;467,450.50
B;10-HIPOLITO;3;479131.5232;9253212.5033;467,450.50
B;10-HIPOLITO;4;479301.1323;9254022.0480;467,450.50
B;11-FUNDO_CACHIQUE;1;479301.1323;9254022.0480;462,402.24
B;11-FUNDO_CACHIQUE;2;479131.5232;9253212.5033;462,402.24
B;11-FUNDO_CACHIQUE;3;478605.3851;9253282.4052;462,402.24
B;11-FUNDO_CACHIQUE;4;478774.9942;9254162.7052;462,402.24
B;12-PAIMA;1;478774.9942;9254162.7052;488,979.97
B;12-PAIMA;2;478605.3851;9253282.4052;488,979.97
B;12-PAIMA;3;478069.6271;9253414.2081;488,979.97
B;12-PAIMA;4;478250.5672;9254292.3471;488,979.97
B;13-INES;1;477722.7179;9254400.8891;474,230.64
B;13-INES;2;478250.5672;9254292.3471;474,230.64
B;13-INES;3;478069.6271;9253414.2081;474,230.64
B;13-INES;4;477552.0354;9253552.2003;474,230.64
B;13-INES;5;477643.5880;9254021.8984;474,230.64
