{
"type": "FeatureCollection",
"name": "aoi",
"crs": { "type": "name", "properties": { "name": "urn:ogc:def:crs:OGC:1.3:CRS84" } },
"features": [
{ "type": "Feature", "properties": { "area": "55" }, "geometry": { "type": "Polygon", "coordinates": [ [ [ -75.220929998132917, -6.783294775193321 ], [ -75.220929998132917, -6.721754886802607 ], [ -75.147851380668939, -6.721754886802607 ], [ -75.147851380668939, -6.783294775193321 ], [ -75.220929998132917, -6.783294775193321 ] ] ] } }
]
}
